…
Use the summarise fn combined with the group\_by fn.

``` r
df %>% group_by(LOCATION) %>% 
  summarise(mean = mean(fertility), sd  = sd(fertility), varibility = sd(fertility)/mean(fertility))
```

    ## `summarise()` ungrouping output (override with `.groups` argument)

    ## # A tibble: 44 x 4
    ##    LOCATION  mean    sd varibility
    ##    <chr>    <dbl> <dbl>      <dbl>
    ##  1 AUS       2.15 0.526      0.245
    ##  2 AUT       1.74 0.485      0.279
    ##  3 BEL       1.84 0.353      0.192
    ##  4 BRA       3.38 1.42       0.421
    ##  5 CAN       1.70 0.389      0.229
    ##  6 CHE       1.71 0.385      0.226
    ##  7 CHL       2.74 0.907      0.331
    ##  8 CHN       3.01 1.74       0.577
    ##  9 COL       3.58 1.53       0.426
    ## 10 CRI       3.22 1.23       0.383
    ## # ... with 34 more rows
…
